{
    "applicationName" : "quietmap",
    "applicationId": "siz4a35tt9pn6cajrgo4xrm7y8lwytdps3hec3mmffpx0ejx",
    "applicationKey": "tl2eq6h4j36rh30dzxi08tn890eog9xn9w0fpfuuk39j8qvk",
    "global": {
        "avVersion": "0.2.0"
    }
}
